704 -192 80
-136 192 -16 96 -168 -160 176
152 -56 328 -96 -72 -224 16
200 -24 -112 -64 -208 -240 96
104 -152 472 -112 120
-16 -184 80 -32 176 -240 -120 -64 16
-120 -48 -8 -192 -136 -16 -168 -216 24
-24 -168 -136 -16 -128 -128 -120 216
-216 -48 -136 -80 -112 -144 -208
-104 -128 -120 -224 -120 -120 -32 88
-64 -152 -56 -72 -72 -200 -32 -96 -120 56
120 -216 -152 -160 -184 120
-56 -200 -240 -128 -88 -120 112
480 -24 -224 -104 128
216 -16 168 -216 16 -128 184
472 -176 -64 -224 24
-176 48 -80 64 -224 136 -144 -32 24
392 -240 -120 216
176 -24 -240 -240 -152 120
48 -88 -80 56 -192 -72 -208 192
