-776 -144 -16 32
-792 -64 120
-768 216
-336 648
-760 224
992
-96 888
-104 -24 -8 568 -224 24
-704 -96 176
-472 512
-112 872
-264 720
-184 184 -592 8
992
992
-72 912
-208 -264 504
-784 -176 16
-112 32 -112 712
-32 552 -144 240
