88 -40 48 -16 -24 -8 720
-80 -88 808
72 -8 -8 -8 -8 -8 -8 -8 -8 -8 -8 752
992
-400 584
-80 80 -80 80 -80 552
-16 -16 -16 -16 16 -16 -16 824
-8 -16 24 -32 -40 48 -56 16 -24 32 -40 -48 -56 -64 -72 -80 208
-16 -24 -32 -40 -48 -56 -8 -16 24 -32 -40 -40 -32 480
-88 -96 -104 -112 -120 -128 -16 -32 232
-160 -152 -144 -136 -128 232
-64 -312 -8 584
-40 328 -40 -40 512
352 -64 -64 488
-320 -160 80 -184 216
-128 -240 -240 144 -40 160
-8 -480 80 -8 384
-96 104 -112 -120 -128 392
-152 -144 136 -128 400
-168 -176 -184 -192 240
